{
    "name": "PawnSystem",
    "references": [
        "GUID:1bd5fcc97d512c740a29bba66ea8297d",
        "Unity.ugui",
        "GUID:a44f47cf3ada4435dbc516bad0bc86fe",
        "GUID:c59a0425a005a064aa5e6cbf43ce019e"
    ],
    "includePlatforms": [],
    "excludePlatforms": [],
    "allowUnsafeCode": false,
    "overrideReferences": false,
    "precompiledReferences": [],
    "autoReferenced": true,
    "defineConstraints": [],
    "versionDefines": [],
    "noEngineReferences": false
}