{
    "name": "StandardAssets",
    "references": [
        "GUID:2bafac87e7f4b9b418d9448d219b01ab"
    ],
    "includePlatforms": [],
    "excludePlatforms": [],
    "allowUnsafeCode": false,
    "overrideReferences": false,
    "precompiledReferences": [],
    "autoReferenced": true,
    "defineConstraints": [],
    "versionDefines": []
}