{
    "name": "PawnSystemEditorScripts",
    "references": [],
    "includePlatforms": [],
    "excludePlatforms": [
        "Editor"
    ],
    "allowUnsafeCode": false,
    "overrideReferences": false,
    "precompiledReferences": [],
    "autoReferenced": true,
    "defineConstraints": [
        "UNITY_EDITOR"
    ],
    "versionDefines": []
}