{
    "name": "DistanceMatching.Editor",
    "references": [
        "GUID:478a2357cc57436488a56e564b08d223",
        "GUID:c59a0425a005a064aa5e6cbf43ce019e"
    ],
    "includePlatforms": [
        "Editor",
        "WindowsStandalone32",
        "WindowsStandalone64"
    ],
    "excludePlatforms": [],
    "allowUnsafeCode": false,
    "overrideReferences": false,
    "precompiledReferences": [],
    "autoReferenced": true,
    "defineConstraints": [],
    "versionDefines": [],
    "noEngineReferences": false
}